…
A model was also conducted with raster layer spatial data obtained from
the Sentinel hub platform. To determine the relationships with remotely
sensed data (vegetation/greenness indices) and variation in
compositional dissimilarity of bird species at the property. The indices
used were SAVI and NDVI.

Satellite images were used for the dates (what dates) when the study
took place (iamges with cloud cover 0%).

## Results

Species frequency table:

    ## # A tibble: 68 × 10
    ##    common_name              IM01  IM02  IM03  OM01  OM02  OM03  RM01  RM02  RM03
    ##    <chr>                   <int> <int> <int> <int> <int> <int> <int> <int> <int>
    ##  1 Australian Magpie          50     8     4     9    32    86     5     1    32
    ##  2 Australian Raven           84    39    51    24    41    28    31    25    26
    ##  3 Australian Ringneck        37     1     9    40     7     6     2     6     5
    ##  4 Bar-shouldered Dove        25     2     1    NA     4     1     2    NA     1
    ##  5 Black-faced Cuckoo-shr…     3     2    NA    NA     4     1     1     2    NA
    ##  6 Brown Treecreeper          15     1     3    NA    34   149    NA    NA    NA
    ##  7 Chestnut-rumped Thornb…   119    59   112   121   103    15    28    30    34
    ##  8 Crested Bellbird           27    28     7     6    19    88    23    11    18
    ##  9 Crested Pigeon              4     2     5     1     6     2    NA     1     1
    ## 10 Diamond Dove                2     1     5    NA     8    NA    NA     1     2
    ## # … with 58 more rows
…
